Статистический анализ рассказов о сновидениях с помощью R
…
Итак, загрузим данные:

## ── Attaching packages ───────────────────────────────────────────────────────────────── tidyverse 1.3.0 ──

## ✓ ggplot2 3.2.1     ✓ purrr   0.3.3
## ✓ tibble  2.1.3     ✓ dplyr   0.8.4
## ✓ tidyr   1.0.2     ✓ stringr 1.4.0
## ✓ readr   1.3.1     ✓ forcats 0.4.0

## ── Conflicts ──────────────────────────────────────────────────────────────────── tidyverse_conflicts() ──
## x dplyr::filter() masks stats::filter()
## x dplyr::lag()    masks stats::lag()

## # A tibble: 3,719 x 5
##       ID Text                     Gender   Age Diagnosis
##    <dbl> <chr>                    <chr>  <dbl> <chr>    
##  1     1 Пото                     ж          7 здоров   
##  2     1 А потом про зайчика сон. <NA>      NA <NA>     
##  3     1 А зайчик вот             <NA>      NA <NA>     
##  4     1 он был в лесу.           <NA>      NA <NA>     
##  5     1 А я была у речки.        <NA>      NA <NA>     
##  6     1 А потом вот я пошла      <NA>      NA <NA>     
##  7     1 к домой                  <NA>      NA <NA>     
##  8     1 а зайчик за мной         <NA>      NA <NA>     
##  9     1 бежал-бежал.             <NA>      NA <NA>     
## 10     1 А потом он прибежал      <NA>      NA <NA>     
## # … with 3,709 more rows
…
Дисперсионный анализ — метод, направленный на поиск зависимостей в экспериментальных данных путём исследования значимости различий в средних значениях. В отличие от t-критерия, позволяет сравнивать средние значения более двух групп. Разработан Р. Фишером для анализа результатов экспериментальных исследований. В литературе также встречается обозначение ANOVA (от англ. ANalysis Of VAriance).

Подготовка данных для анализа:

Подставим вместо NA нужные значения с помощью функции fill, создадим дополнительный столбец Health_Group со значениями: здоров и не здоров.

nds <- nds%>%
  fill(Gender:Diagnosis)

nds <- nds%>%
  mutate(Health_Group = ifelse(Diagnosis == "здоров","здоров", "не здоров"))

nds

## # A tibble: 3,719 x 6
##       ID Text                     Gender   Age Diagnosis Health_Group
##    <dbl> <chr>                    <chr>  <dbl> <chr>     <chr>       
##  1     1 Пото                     ж          7 здоров    здоров      
##  2     1 А потом про зайчика сон. ж          7 здоров    здоров      
##  3     1 А зайчик вот             ж          7 здоров    здоров      
##  4     1 он был в лесу.           ж          7 здоров    здоров      
##  5     1 А я была у речки.        ж          7 здоров    здоров      
##  6     1 А потом вот я пошла      ж          7 здоров    здоров      
##  7     1 к домой                  ж          7 здоров    здоров      
##  8     1 а зайчик за мной         ж          7 здоров    здоров      
##  9     1 бежал-бежал.             ж          7 здоров    здоров      
## 10     1 А потом он прибежал      ж          7 здоров    здоров      
## # … with 3,709 more rows
…
